{
  "5375c39e3375ec8be5f0475131139aa08b8d0afebd73ebf2096e0af9792611b1": true,
  "c55216de976363bc5c00c78684a5aa8773ec8c959b7ecd8873ded60a753b01c2": true,
  "a085ba22239b2c29493e86e13b8c9b76d8fc966c07dff0f5f0cd6987339ec585": true,
  "98ec02c85e705eb8f1216aaaf0eab92b07b31171a3237c3fc7f75682d869eed6": true,
  "ace2922681e31a752b74fb01b0bee3b776b21c960cf42c22872a85ac04715c00": true,
  "f4327dfcc81da135cc298fb38bd16496553bd366c5f4460b480a236b43a4fc77": true,
  "456fae687eb0e27dac5bbf6b9189dbe2eaca806f482efd68455d494ca4d6a8fd": true
}
